[gd_scene load_steps=2 format=2]

[ext_resource path="res://assets/ui/folder.png" type="Texture" id=1]

[node name="Folder" type="NinePatchRect"]
anchor_right = 1.0
anchor_bottom = 1.0
size_flags_horizontal = 3
size_flags_vertical = 3
texture = ExtResource( 1 )
patch_margin_left = 128
patch_margin_top = 128
patch_margin_right = 128
patch_margin_bottom = 128
axis_stretch_horizontal = 2
axis_stretch_vertical = 2
