[gd_scene load_steps=2 format=2]

[ext_resource path="res://assets/models/decorations/rainforest/decoration_rainforest_parrot/decoration_rainforest_parrot.glb" type="PackedScene" id=1]

[node name="decoration_rainforest_parrot" instance=ExtResource( 1 )]
