[gd_scene load_steps=2 format=2]

[ext_resource path="res://assets/models/resources/resource_treasure/resource_treasure.glb" type="PackedScene" id=1]

[node name="resource_treasure" instance=ExtResource( 1 )]
