[gd_scene load_steps=2 format=2]

[ext_resource path="res://assets/models/stations/cargo/station_cargo_back/station_cargo_back.glb" type="PackedScene" id=1]

[node name="station_cargo_back" instance=ExtResource( 1 )]
