[gd_scene load_steps=2 format=2]

[ext_resource path="res://assets/models/decorations/city/decoration_city_car/decoration_city_car.glb" type="PackedScene" id=1]

[node name="decoration_city_car" instance=ExtResource( 1 )]
