[gd_scene load_steps=2 format=2]

[ext_resource path="res://assets/models/carriages/cargo2/carriage_cargo2_topcarriage-green1/carriage_cargo2_topcarriage-green1.glb" type="PackedScene" id=1]

[node name="carriage_cargo2_topcarriage-green1" instance=ExtResource( 1 )]
