[gd_resource type="SpatialMaterial" load_steps=3 format=2]

[sub_resource type="Image" id=3]
data = {
"data": PoolByteArray( 75, 75, 75, 255, 75, 75, 75, 255, 75, 75, 75, 255, 75, 75, 75, 255, 75, 75, 75, 255, 75, 75, 75, 255, 75, 75, 75, 255, 75, 75, 75, 255, 75, 75, 75, 255, 75, 75, 75, 255, 75, 75, 75, 255, 75, 75, 75, 255, 75, 75, 75, 255, 75, 75, 75, 255, 75, 75, 75, 255, 75, 75, 75, 255, 75, 75, 75, 255, 75, 75, 75, 255, 75, 75, 75, 255, 75, 75, 75, 255, 75, 75, 75, 255, 75, 75, 75, 255, 75, 75, 75, 255, 75, 75, 75, 255, 75, 75, 75, 255, 75, 75, 75, 255, 75, 75, 75, 255, 75, 75, 75, 255, 75, 75, 75, 255, 75, 75, 75, 255, 75, 75, 75, 255, 75, 75, 75, 255, 75, 75, 75, 255, 75, 75, 75, 255, 75, 75, 75, 255, 75, 75, 75, 255, 75, 75, 75, 255, 75, 75, 75, 255, 75, 75, 75, 255, 75, 75, 75, 255, 75, 75, 75, 255, 75, 75, 75, 255, 75, 75, 75, 255, 75, 75, 75, 255, 75, 75, 75, 255, 75, 75, 75, 255, 75, 75, 75, 255, 75, 75, 75, 255, 75, 75, 75, 255, 75, 75, 75, 255, 75, 75, 75, 255, 75, 75, 75, 255, 75, 75, 75, 255, 75, 75, 75, 255, 75, 75, 75, 255, 75, 75, 75, 255, 75, 75, 75, 255, 75, 75, 75, 255, 75, 75, 75, 255, 75, 75, 75, 255, 75, 75, 75, 255, 75, 75, 75, 255, 75, 75, 75, 255, 75, 75, 75, 255, 75, 75, 75, 255, 75, 75, 75, 255, 75, 75, 75, 255, 75, 75, 75, 255, 75, 75, 75, 255, 75, 75, 75, 255, 75, 75, 75, 255, 75, 75, 75, 255, 75, 75, 75, 255, 75, 75, 75, 255, 75, 75, 75, 255, 75, 75, 75, 255, 75, 75, 75, 255, 75, 75, 75, 255, 75, 75, 75, 255, 75, 75, 75, 255, 75, 75, 75, 255, 75, 75, 75, 255, 75, 75, 75, 255, 75, 75, 75, 255, 75, 75, 75, 255, 75, 75, 75, 255, 75, 75, 75, 255, 75, 75, 75, 255, 75, 75, 75, 255, 75, 75, 75, 255, 75, 75, 75, 255, 75, 75, 75, 255, 75, 75, 75, 255, 75, 75, 75, 255, 75, 75, 75, 255, 75, 75, 75, 255, 75, 75, 75, 255, 75, 75, 75, 255, 75, 75, 75, 255, 75, 75, 75, 255, 75, 75, 75, 255, 75, 75, 75, 255, 75, 75, 75, 255, 75, 75, 75, 255, 75, 75, 75, 255, 75, 75, 75, 255, 75, 75, 75, 255, 75, 75, 75, 255, 75, 75, 75, 255, 75, 75, 75, 255, 75, 75, 75, 255, 75, 75, 75, 255, 75, 75, 75, 255, 75, 75, 75, 255, 75, 75, 75, 255, 75, 75, 75, 255, 75, 75, 75, 255, 75, 75, 75, 255, 75, 75, 75, 255, 75, 75, 75, 255, 75, 75, 75, 255, 75, 75, 75, 255, 75, 75, 75, 255, 75, 75, 75, 255, 75, 75, 75, 255, 75, 75, 75, 255, 75, 75, 75, 255, 75, 75, 75, 255, 75, 75, 75, 255, 75, 75, 75, 255, 75, 75, 75, 255, 75, 75, 75, 255, 75, 75, 75, 255, 75, 75, 75, 255, 75, 75, 75, 255, 75, 75, 75, 255, 75, 75, 75, 255, 75, 75, 75, 255, 75, 75, 75, 255, 75, 75, 75, 255, 75, 75, 75, 255, 75, 75, 75, 255, 75, 75, 75, 255, 75, 75, 75, 255, 75, 75, 75, 255, 75, 75, 75, 255, 75, 75, 75, 255, 75, 75, 75, 255, 75, 75, 75, 255, 75, 75, 75, 255, 75, 75, 75, 255, 75, 75, 75, 255, 75, 75, 75, 255, 75, 75, 75, 255, 75, 75, 75, 255, 75, 75, 75, 255, 75, 75, 75, 255, 75, 75, 75, 255, 75, 75, 75, 255, 75, 75, 75, 255, 75, 75, 75, 255, 75, 75, 75, 255, 75, 75, 75, 255, 75, 75, 75, 255, 75, 75, 75, 255, 75, 75, 75, 255, 75, 75, 75, 255, 75, 75, 75, 255, 75, 75, 75, 255, 75, 75, 75, 255, 75, 75, 75, 255, 75, 75, 75, 255, 75, 75, 75, 255, 75, 75, 75, 255, 75, 75, 75, 255, 75, 75, 75, 255, 75, 75, 75, 255, 75, 75, 75, 255, 75, 75, 75, 255, 75, 75, 75, 255, 75, 75, 75, 255, 75, 75, 75, 255, 75, 75, 75, 255, 75, 75, 75, 255, 75, 75, 75, 255, 75, 75, 75, 255, 75, 75, 75, 255, 75, 75, 75, 255, 75, 75, 75, 255, 75, 75, 75, 255, 75, 75, 75, 255, 75, 75, 75, 255, 75, 75, 75, 255, 75, 75, 75, 255, 75, 75, 75, 255, 75, 75, 75, 255, 75, 75, 75, 255, 75, 75, 75, 255, 75, 75, 75, 255, 75, 75, 75, 255, 75, 75, 75, 255, 75, 75, 75, 255, 75, 75, 75, 255, 75, 75, 75, 255, 75, 75, 75, 255, 75, 75, 75, 255, 75, 75, 75, 255, 75, 75, 75, 255, 75, 75, 75, 255, 184, 140, 69, 255, 167, 126, 62, 255, 159, 120, 59, 255, 75, 75, 75, 255, 75, 75, 75, 255, 75, 75, 75, 255, 75, 75, 75, 255, 75, 75, 75, 255, 184, 172, 69, 255, 167, 156, 62, 255, 151, 138, 56, 255, 75, 75, 75, 255, 75, 75, 75, 255, 75, 75, 75, 255, 75, 75, 75, 255, 75, 75, 75, 255, 27, 111, 21, 255, 24, 95, 18, 255, 20, 82, 15, 255, 75, 75, 75, 255, 75, 75, 75, 255, 75, 75, 75, 255, 75, 75, 75, 255, 75, 75, 75, 255, 55, 86, 16, 255, 48, 75, 14, 255, 44, 69, 12, 255, 75, 75, 75, 255, 75, 75, 75, 255, 75, 75, 75, 255, 75, 75, 75, 255, 75, 75, 75, 255, 72, 43, 24, 255, 67, 41, 23, 255, 58, 35, 20, 255, 75, 75, 75, 255, 75, 75, 75, 255, 75, 75, 75, 255, 75, 75, 75, 255, 75, 75, 75, 255, 75, 75, 75, 255, 75, 75, 75, 255, 75, 75, 75, 255, 75, 75, 75, 255, 75, 75, 75, 255, 75, 75, 75, 255, 0, 0, 0, 0 ),
"format": "RGBA8",
"height": 1,
"mipmaps": false,
"width": 256
}

[sub_resource type="ImageTexture" id=2]
image = SubResource( 3 )
size = Vector2( 256, 1 )

[resource]
resource_name = "palette.007"
params_cull_mode = 2
albedo_texture = SubResource( 2 )
