[gd_scene load_steps=2 format=2]

[ext_resource path="res://assets/models/giraffes/city/giraffe_city_pink/giraffe_city_pink.glb" type="PackedScene" id=1]

[node name="giraffe_city_pink" instance=ExtResource( 1 )]
