[gd_scene load_steps=2 format=2]

[ext_resource path="res://assets/models/giraffes/city/giraffe_city_red/giraffe_city_red.glb" type="PackedScene" id=1]

[node name="giraffe_city_red" instance=ExtResource( 1 )]
