[gd_scene load_steps=2 format=2]

[ext_resource path="res://assets/models/stations/main/station_main_edge/station_main_edge.glb" type="PackedScene" id=1]

[node name="station_main_edge" instance=ExtResource( 1 )]
