[gd_scene load_steps=2 format=2]

[ext_resource path="res://assets/models/tracks/track_straight2/track_straight2.glb" type="PackedScene" id=1]

[node name="track_straight2" instance=ExtResource( 1 )]
