[gd_resource type="SpatialMaterial" load_steps=3 format=2]

[sub_resource type="Image" id=3]
data = {
"data": PoolByteArray( 75, 75, 75, 255, 75, 75, 75, 255, 75, 75, 75, 255, 75, 75, 75, 255, 75, 75, 75, 255, 75, 75, 75, 255, 75, 75, 75, 255, 75, 75, 75, 255, 75, 75, 75, 255, 75, 75, 75, 255, 75, 75, 75, 255, 75, 75, 75, 255, 75, 75, 75, 255, 75, 75, 75, 255, 75, 75, 75, 255, 75, 75, 75, 255, 75, 75, 75, 255, 75, 75, 75, 255, 75, 75, 75, 255, 75, 75, 75, 255, 75, 75, 75, 255, 75, 75, 75, 255, 75, 75, 75, 255, 75, 75, 75, 255, 75, 75, 75, 255, 75, 75, 75, 255, 75, 75, 75, 255, 75, 75, 75, 255, 75, 75, 75, 255, 75, 75, 75, 255, 75, 75, 75, 255, 75, 75, 75, 255, 75, 75, 75, 255, 75, 75, 75, 255, 75, 75, 75, 255, 75, 75, 75, 255, 75, 75, 75, 255, 75, 75, 75, 255, 75, 75, 75, 255, 75, 75, 75, 255, 75, 75, 75, 255, 75, 75, 75, 255, 75, 75, 75, 255, 75, 75, 75, 255, 75, 75, 75, 255, 75, 75, 75, 255, 75, 75, 75, 255, 75, 75, 75, 255, 75, 75, 75, 255, 75, 75, 75, 255, 75, 75, 75, 255, 75, 75, 75, 255, 75, 75, 75, 255, 75, 75, 75, 255, 75, 75, 75, 255, 75, 75, 75, 255, 75, 75, 75, 255, 75, 75, 75, 255, 75, 75, 75, 255, 75, 75, 75, 255, 75, 75, 75, 255, 75, 75, 75, 255, 75, 75, 75, 255, 75, 75, 75, 255, 75, 75, 75, 255, 75, 75, 75, 255, 75, 75, 75, 255, 75, 75, 75, 255, 75, 75, 75, 255, 75, 75, 75, 255, 75, 75, 75, 255, 75, 75, 75, 255, 75, 75, 75, 255, 75, 75, 75, 255, 75, 75, 75, 255, 75, 75, 75, 255, 75, 75, 75, 255, 75, 75, 75, 255, 75, 75, 75, 255, 75, 75, 75, 255, 75, 75, 75, 255, 75, 75, 75, 255, 75, 75, 75, 255, 75, 75, 75, 255, 75, 75, 75, 255, 75, 75, 75, 255, 75, 75, 75, 255, 75, 75, 75, 255, 75, 75, 75, 255, 75, 75, 75, 255, 75, 75, 75, 255, 75, 75, 75, 255, 75, 75, 75, 255, 75, 75, 75, 255, 75, 75, 75, 255, 75, 75, 75, 255, 75, 75, 75, 255, 75, 75, 75, 255, 75, 75, 75, 255, 75, 75, 75, 255, 75, 75, 75, 255, 75, 75, 75, 255, 75, 75, 75, 255, 75, 75, 75, 255, 75, 75, 75, 255, 75, 75, 75, 255, 75, 75, 75, 255, 75, 75, 75, 255, 75, 75, 75, 255, 75, 75, 75, 255, 75, 75, 75, 255, 75, 75, 75, 255, 75, 75, 75, 255, 75, 75, 75, 255, 75, 75, 75, 255, 75, 75, 75, 255, 75, 75, 75, 255, 75, 75, 75, 255, 75, 75, 75, 255, 75, 75, 75, 255, 75, 75, 75, 255, 75, 75, 75, 255, 75, 75, 75, 255, 75, 75, 75, 255, 75, 75, 75, 255, 75, 75, 75, 255, 75, 75, 75, 255, 75, 75, 75, 255, 75, 75, 75, 255, 75, 75, 75, 255, 75, 75, 75, 255, 75, 75, 75, 255, 75, 75, 75, 255, 75, 75, 75, 255, 75, 75, 75, 255, 75, 75, 75, 255, 75, 75, 75, 255, 75, 75, 75, 255, 75, 75, 75, 255, 75, 75, 75, 255, 75, 75, 75, 255, 75, 75, 75, 255, 75, 75, 75, 255, 75, 75, 75, 255, 75, 75, 75, 255, 75, 75, 75, 255, 75, 75, 75, 255, 75, 75, 75, 255, 75, 75, 75, 255, 75, 75, 75, 255, 75, 75, 75, 255, 75, 75, 75, 255, 75, 75, 75, 255, 75, 75, 75, 255, 75, 75, 75, 255, 75, 75, 75, 255, 75, 75, 75, 255, 75, 75, 75, 255, 75, 75, 75, 255, 75, 75, 75, 255, 75, 75, 75, 255, 75, 75, 75, 255, 75, 75, 75, 255, 75, 75, 75, 255, 75, 75, 75, 255, 75, 75, 75, 255, 75, 75, 75, 255, 75, 75, 75, 255, 75, 75, 75, 255, 75, 75, 75, 255, 75, 75, 75, 255, 75, 75, 75, 255, 75, 75, 75, 255, 75, 75, 75, 255, 75, 75, 75, 255, 75, 75, 75, 255, 75, 75, 75, 255, 75, 75, 75, 255, 75, 75, 75, 255, 75, 75, 75, 255, 75, 75, 75, 255, 75, 75, 75, 255, 75, 75, 75, 255, 75, 75, 75, 255, 75, 75, 75, 255, 75, 75, 75, 255, 75, 75, 75, 255, 75, 75, 75, 255, 75, 75, 75, 255, 75, 75, 75, 255, 75, 75, 75, 255, 75, 75, 75, 255, 160, 112, 42, 255, 152, 105, 36, 255, 127, 83, 33, 255, 75, 75, 75, 255, 75, 75, 75, 255, 75, 75, 75, 255, 75, 75, 75, 255, 75, 75, 75, 255, 160, 118, 42, 255, 149, 112, 39, 255, 127, 94, 33, 255, 75, 75, 75, 255, 75, 75, 75, 255, 75, 75, 75, 255, 75, 75, 75, 255, 75, 75, 75, 255, 68, 104, 132, 255, 19, 100, 21, 255, 23, 116, 26, 255, 75, 75, 75, 255, 75, 75, 75, 255, 75, 75, 75, 255, 75, 75, 75, 255, 75, 75, 75, 255, 29, 130, 32, 255, 22, 111, 25, 255, 171, 89, 18, 255, 207, 150, 37, 255, 97, 10, 10, 255, 36, 22, 122, 255, 228, 228, 228, 255, 171, 171, 171, 255, 26, 26, 26, 255, 34, 34, 34, 255, 28, 28, 28, 255, 61, 61, 61, 255, 23, 23, 23, 255, 83, 83, 83, 255, 201, 201, 201, 255, 126, 130, 106, 255, 83, 69, 30, 255, 31, 25, 23, 255, 26, 21, 20, 255, 30, 24, 22, 255, 75, 75, 75, 255, 18, 22, 31, 255, 187, 187, 187, 255, 77, 80, 65, 255, 160, 98, 63, 255, 149, 73, 32, 255, 119, 60, 26, 255, 102, 55, 22, 255, 56, 33, 20, 255, 53, 28, 11, 255, 75, 75, 75, 255, 75, 75, 75, 255, 102, 55, 22, 255, 75, 75, 75, 255, 75, 75, 75, 255, 75, 75, 75, 255, 75, 75, 75, 255, 75, 75, 75, 255, 75, 75, 75, 255, 0, 0, 0, 0 ),
"format": "RGBA8",
"height": 1,
"mipmaps": false,
"width": 256
}

[sub_resource type="ImageTexture" id=2]
flags = 19
flags = 19
image = SubResource( 3 )
size = Vector2( 256, 1 )

[resource]
resource_name = "palette.005"
params_cull_mode = 2
albedo_texture = SubResource( 2 )
