[gd_scene load_steps=2 format=2]

[ext_resource path="res://assets/models/giraffes/desert/giraffe_desert_plain/giraffe_desert_plain.glb" type="PackedScene" id=1]

[node name="giraffe_desert_plain" instance=ExtResource( 1 )]
