[gd_scene load_steps=2 format=2]

[ext_resource path="res://assets/models/giraffes/desert/giraffe_desert_small-cactus/giraffe_desert_small-cactus.glb" type="PackedScene" id=1]

[node name="giraffe_desert_small-cactus" instance=ExtResource( 1 )]
