[gd_scene load_steps=2 format=2]

[ext_resource path="res://assets/models/giraffes/desert/giraffe_desert_base/giraffe_desert_base.glb" type="PackedScene" id=1]

[node name="giraffe_desert_base" instance=ExtResource( 1 )]
