[gd_scene load_steps=2 format=2]

[ext_resource path="res://assets/models/decorations/underwater/decoration_underwater_octopus2/decoration_underwater_octopus2.glb" type="PackedScene" id=1]

[node name="decoration_underwater_octopus2" instance=ExtResource( 1 )]
