[gd_scene load_steps=2 format=2]

[ext_resource path="res://assets/models/decorations/underwater/decoration_underwater_octopus/decoration_underwater_octopus.glb" type="PackedScene" id=1]

[node name="decoration_underwater_octopus" instance=ExtResource( 1 )]
