[gd_scene load_steps=2 format=2]

[ext_resource path="res://assets/models/decorations/plains/decoration_plains_tree2/decoration_plains_tree2.glb" type="PackedScene" id=1]

[node name="decoration_plains_tree2" instance=ExtResource( 1 )]
