[gd_scene load_steps=2 format=2]

[ext_resource path="res://assets/models/decorations/plains/decoration_plains_cow/decoration_plains_cow.glb" type="PackedScene" id=1]

[node name="decoration_plains_cow" instance=ExtResource( 1 )]
