[gd_scene load_steps=2 format=2]

[ext_resource path="res://assets/models/giraffes/underwater/giraffe_underwater_base/giraffe_underwater_base.glb" type="PackedScene" id=1]

[node name="giraffe_underwater_base" instance=ExtResource( 1 )]
