[gd_scene load_steps=2 format=2]

[ext_resource path="res://assets/models/carriages/passenger3/carriage_passenger3_topcarriage/carriage_passenger3_topcarriage.glb" type="PackedScene" id=1]

[node name="carriage_passenger3_topcarriage" instance=ExtResource( 1 )]
