[gd_scene load_steps=2 format=2]

[ext_resource path="res://assets/models/carriages/cargo3/carriage_cargo3_wheel/carriage_cargo3_wheel.glb" type="PackedScene" id=1]

[node name="carriage_cargo3_wheel" instance=ExtResource( 1 )]
