[gd_scene load_steps=2 format=2]

[ext_resource path="res://assets/models/decorations/seaside/decoration_seaside_towel1/decoration_seaside_towel1.glb" type="PackedScene" id=1]

[node name="decoration_seaside_towel1" instance=ExtResource( 1 )]
