[gd_scene load_steps=2 format=2]

[ext_resource path="res://assets/models/stations/passenger/station_passenger_edge/station_passenger_edge.glb" type="PackedScene" id=1]

[node name="station_passenger_edge" instance=ExtResource( 1 )]
