[gd_scene load_steps=2 format=2]

[ext_resource path="res://assets/models/carriages/passenger2/carriage_passenger2_wheel/carriage_passenger2_wheel.glb" type="PackedScene" id=1]

[node name="carriage_passenger2_wheel" instance=ExtResource( 1 )]
