[gd_scene load_steps=5 format=2]

[ext_resource path="res://components/world/environment.gd" type="Script" id=1]
[ext_resource path="res://components/models/locomotives/steam/locomotive_steam_full.tscn" type="PackedScene" id=2]

[sub_resource type="PlaneMesh" id=1]
size = Vector2( 3.2, 3.2 )

[sub_resource type="SpatialMaterial" id=2]

[node name="Environment" type="Spatial"]
script = ExtResource( 1 )

[node name="GroundAnchor" type="Spatial" parent="."]

[node name="GroundBlock" type="MeshInstance" parent="GroundAnchor"]
visible = false
mesh = SubResource( 1 )
material/0 = SubResource( 2 )

[node name="TrainAnchor" type="Spatial" parent="."]
transform = Transform( 1, 0, 0, 0, 1, 0, 0, 0, 1, 80, 0, 40 )

[node name="Train1" parent="TrainAnchor" instance=ExtResource( 2 )]
